﻿{
  "dependencies": {
    "Microsoft.Bcl.Build": "1.0.21",
    "Microsoft.NETCore.UniversalWindowsPlatform": "5.2.2"
  },
  "frameworks": {
    "uap10.0.10240": {}
  },
  "runtimes": {
    "win10-arm": {},
    "win10-arm-aot": {},
    "win10-x86": {},
    "win10-x86-aot": {},
    "win10-x64": {},
    "win10-x64-aot": {}
  }
}